{
  "data": {
    "project_homepage": {
        "uid": "abcde",
        "project": {
          "uid": "bcdeg",
          "name": "Project Name"
        },
        "sections": [
          {
            "position": 1,
            "uid": "cdegh",
            "name": "Disrupting Meal Patterns",
            "widgets": [
              {
                "position": 1,
                "uid": "deghi",
                "type": "cards",
                "items": [
                  {
                    "position": 1,
                    "uid": "eghij",
                    "span": 4
                  },
                  {
                    "position": 2,
                    "uid": "eghik",
                    "span": 4
                  },
                  {
                    "position": 3,
                    "uid": "ghikl",
                    "span": 4
                  }
                ]
              },
              {
                "position": 2,
                "uid": "hiklm",
                "type": "cards",
                "items": [
                  {
                    "position": 1,
                    "uid": "iklmn",
                    "span": 4
                  },
                  {
                    "position": 2,
                    "uid": "i0lmn",
                    "span": 4
                  },
                  {
                    "position": 3,
                    "uid": "klmno",
                    "span": 4
                  }
                ]
              },
              {
                "position": 3,
                "uid": "lmnop",
                "type": "cards",
                "items": [
                  {
                    "position": 1,
                    "uid": "mnopq",
                    "span": 8
                  },
                  {
                    "position": 2,
                    "uid": "nopqr",
                    "span": 4
                  }
                ]
              },
              {
               "position": 4,
                "uid": "opqrs",
                "type": "cards",
                "items": [
                  {
                    "position": 1,
                    "uid": "pqrst",
                    "span": 12
                  }
                ]
              },
              {
                "position": 5,
                "uid": "qrstu",
                "type": "headline"
              },
              {
                "position": 6,
                "uid": "rstuv",
                "type": "hero"
              },
              {
               "position": 7,
                "uid": "stuvw",
                "type": "cards",
                "items": [
                  {
                    "position": 1,
                    "uid": "tuvwx",
                    "span": 4
                  },
                  {
                    "position": 2,
                    "uid": "uvwxy",
                    "span": 8
                  }
                ]
              },
              {
               "position": 8,
                "uid": "vwxyz",
                "type": "cards",
                "items": [
                  {
                    "position": 1,
                    "uid": "1vwxyz",
                    "span": 8
                  },
                  {
                    "position": 2,
                    "uid": "vwxyz1",
                    "span": 4
                  }
                ]
              },
              {
               "position": 9,
                "uid": "v2wxyz",
                "type": "cards",
                "items": [
                  {
                    "position": 1,
                    "uid": "2vwxyz",
                    "span": 4
                  },
                  {
                    "position": 2,
                    "uid": "vwxyz2",
                    "span": 4
                  },
                  {
                    "position": 3,
                    "uid": "vwxy2z",
                    "span": 4
                  }
                ]
              },
              {
               "position": 10,
                "uid": "v2w8yz",
                "type": "cards",
                "items": [
                  {
                    "position": 1,
                    "uid": "2v8xyz",
                    "span": 4
                  },
                  {
                    "position": 2,
                    "uid": "v8xcz2",
                    "span": 4
                  },
                  {
                    "position": 3,
                    "uid": "10ksh",
                    "span": 4
                  }
                ]
              },
              {
               "position": 11,
                "uid": "v29syz",
                "type": "cards",
                "items": [
                  {
                    "position": 1,
                    "uid": "2vgtz",
                    "span": 4
                  },
                  {
                    "position": 2,
                    "uid": "afads",
                    "span": 4
                  },
                  {
                    "position": 3,
                    "uid": "gkhj53",
                    "span": 4
                  }
                ]
              },
              {
               "position": 12,
                "uid": "rtf36yg",
                "type": "cards",
                "items": [
                  {
                    "position": 1,
                    "uid": "dhfthf4",
                    "span": 4
                  },
                  {
                    "position": 2,
                    "uid": "r6erf",
                    "span": 4
                  },
                  {
                    "position": 3,
                    "uid": "56y5rtd",
                    "span": 4
                  }
                ]
              },
              {
               "position": 13,
                "uid": "fhddf4",
                "type": "cards",
                "items": [
                  {
                    "position": 1,
                    "uid": "754fgh",
                    "span": 4
                  },
                  {
                    "position": 2,
                    "uid": "fdv66",
                    "span": 4
                  },
                  {
                    "position": 3,
                    "uid": "gkyy47",
                    "span": 4
                  }
                ]
              },
              {
               "position": 14,
                "uid": "7547ud",
                "type": "cards",
                "items": [
                  {
                    "position": 1,
                    "uid": "7474ffh",
                    "span": 4
                  },
                  {
                    "position": 2,
                    "uid": "dhrt547",
                    "span": 4
                  },
                  {
                    "position": 3,
                    "uid": "dnhftd",
                    "span": 4
                  }
                ]
              },
              {
               "position": 15,
                "uid": "75227ud",
                "type": "cards",
                "items": [
                  {
                    "position": 1,
                    "uid": "74hffh",
                    "span": 4
                  },
                  {
                    "position": 2,
                    "uid": "sesgf",
                    "span": 4
                  },
                  {
                    "position": 3,
                    "uid": "dng65td",
                    "span": 4
                  }
                ]
              },
              {
               "position": 16,
                "uid": "75dgdud",
                "type": "cards",
                "items": [
                  {
                    "position": 1,
                    "uid": "75dfgd",
                    "span": 4
                  },
                  {
                    "position": 2,
                    "uid": "d56t47",
                    "span": 4
                  },
                  {
                    "position": 3,
                    "uid": "d6rhfd",
                    "span": 4
                  }
                ]
              },
              {
               "position": 17,
                "uid": "kj94ns",
                "type": "cards",
                "items": [
                  {
                    "position": 1,
                    "uid": "iejrf7n",
                    "span": 4
                  },
                  {
                    "position": 2,
                    "uid": "kanfn6",
                    "span": 4
                  },
                  {
                    "position": 3,
                    "uid": "73gbfk",
                    "span": 4
                  }
                ]
              },
              {
               "position": 18,
                "uid": "9nskb",
                "type": "cards",
                "items": [
                  {
                    "position": 1,
                    "uid": "ksks10",
                    "span": 4
                  },
                  {
                    "position": 2,
                    "uid": "jshgj11",
                    "span": 4
                  },
                  {
                    "position": 3,
                    "uid": "ksfn12",
                    "span": 4
                  }
                ]
              },
              {
               "position": 19,
                "uid": "skf13",
                "type": "cards",
                "items": [
                  {
                    "position": 1,
                    "uid": "kjsnf14",
                    "span": 4
                  },
                  {
                    "position": 2,
                    "uid": "nfn15j",
                    "span": 4
                  },
                  {
                    "position": 3,
                    "uid": "ksjf16b",
                    "span": 4
                  }
                ]
              },
              {
               "position": 20,
                "uid": "jsf17f",
                "type": "cards",
                "items": [
                  {
                    "position": 1,
                    "uid": "94hg18s",
                    "span": 4
                  },
                  {
                    "position": 2,
                    "uid": "jsf19",
                    "span": 4
                  },
                  {
                    "position": 3,
                    "uid": "ksjef20",
                    "span": 4
                  }
                ]
              },
              {
               "position": 21,
                "uid": "7523ud",
                "type": "cards",
                "items": [
                  {
                    "position": 1,
                    "uid": "7422fh",
                    "span": 4
                  },
                  {
                    "position": 2,
                    "uid": "dh24547",
                    "span": 4
                  },
                  {
                    "position": 3,
                    "uid": "dn25td",
                    "span": 4
                  }
                ]
              },
              {
               "position": 22,
                "uid": "26grdg",
                "type": "cards",
                "items": [
                  {
                    "position": 1,
                    "uid": "7427ffh",
                    "span": 4
                  },
                  {
                    "position": 2,
                    "uid": "dh2847",
                    "span": 4
                  },
                  {
                    "position": 3,
                    "uid": "dn29td",
                    "span": 4
                  }
                ]
              },
              {
               "position": 23,
                "uid": "75430ud",
                "type": "cards",
                "items": [
                  {
                    "position": 1,
                    "uid": "7431ffh",
                    "span": 4
                  },
                  {
                    "position": 2,
                    "uid": "dhr3247",
                    "span": 4
                  },
                  {
                    "position": 3,
                    "uid": "dnh33d",
                    "span": 4
                  }
                ]
              },
              {
               "position": 24,
                "uid": "7534ud",
                "type": "cards",
                "items": [
                  {
                    "position": 1,
                    "uid": "7435h",
                    "span": 4
                  },
                  {
                    "position": 2,
                    "uid": "dh3654",
                    "span": 4
                  },
                  {
                    "position": 3,
                    "uid": "dn37d",
                    "span": 4
                  }
                ]
              },
              {
               "position": 25,
                "uid": "7538ud",
                "type": "cards",
                "items": [
                  {
                    "position": 1,
                    "uid": "739ffh",
                    "span": 4
                  },
                  {
                    "position": 2,
                    "uid": "dh4047",
                    "span": 4
                  },
                  {
                    "position": 3,
                    "uid": "dn41td",
                    "span": 4
                  }
                ]
              },
              {
               "position": 26,
                "uid": "75442d",
                "type": "cards",
                "items": [
                  {
                    "position": 1,
                    "uid": "743ffh",
                    "span": 4
                  },
                  {
                    "position": 2,
                    "uid": "dh44547",
                    "span": 4
                  },
                  {
                    "position": 3,
                    "uid": "dn45td",
                    "span": 4
                  }
                ]
              },
              {
               "position": 27,
                "uid": "75446d",
                "type": "cards",
                "items": [
                  {
                    "position": 1,
                    "uid": "74747h",
                    "span": 4
                  },
                  {
                    "position": 2,
                    "uid": "dh4847",
                    "span": 4
                  },
                  {
                    "position": 3,
                    "uid": "dn49td",
                    "span": 4
                  }
                ]
              },
              {
               "position": 28,
                "uid": "7450ud",
                "type": "cards",
                "items": [
                  {
                    "position": 1,
                    "uid": "7451fh",
                    "span": 4
                  },
                  {
                    "position": 2,
                    "uid": "dh52547",
                    "span": 4
                  },
                  {
                    "position": 3,
                    "uid": "dn53td",
                    "span": 4
                  }
                ]
              },
              {
               "position": 29,
                "uid": "7548ud",
                "type": "cards",
                "items": [
                  {
                    "position": 1,
                    "uid": "74754h",
                    "span": 4
                  },
                  {
                    "position": 2,
                    "uid": "dh55547",
                    "span": 4
                  },
                  {
                    "position": 3,
                    "uid": "dnh56d",
                    "span": 4
                  }
                ]
              },
              {
               "position": 30,
                "uid": "75457ud",
                "type": "cards",
                "items": [
                  {
                    "position": 1,
                    "uid": "7458ffh",
                    "span": 4
                  },
                  {
                    "position": 2,
                    "uid": "dh5947",
                    "span": 4
                  },
                  {
                    "position": 3,
                    "uid": "dn60d",
                    "span": 4
                  }
                ]
              },
              {
               "position": 31,
                "uid": "7561ud",
                "type": "cards",
                "items": [
                  {
                    "position": 1,
                    "uid": "7462ffh",
                    "span": 4
                  },
                  {
                    "position": 2,
                    "uid": "dhr6347",
                    "span": 4
                  },
                  {
                    "position": 3,
                    "uid": "dn64td",
                    "span": 4
                  }
                ]
              },
              {
               "position": 32,
                "uid": "765ud",
                "type": "cards",
                "items": [
                  {
                    "position": 1,
                    "uid": "7466fh",
                    "span": 4
                  },
                  {
                    "position": 2,
                    "uid": "dhr677",
                    "span": 4
                  },
                  {
                    "position": 3,
                    "uid": "dnh68d",
                    "span": 4
                  }
                ]
              },
              {
               "position": 33,
                "uid": "7569ud",
                "type": "cards",
                "items": [
                  {
                    "position": 1,
                    "uid": "7470ffh",
                    "span": 4
                  },
                  {
                    "position": 2,
                    "uid": "dh7157",
                    "span": 4
                  },
                  {
                    "position": 3,
                    "uid": "dn72td",
                    "span": 4
                  }
                ]
              },
              {
               "position": 34,
                "uid": "75473ud",
                "type": "cards",
                "items": [
                  {
                    "position": 1,
                    "uid": "7g74ffh",
                    "span": 4
                  },
                  {
                    "position": 2,
                    "uid": "dh7547",
                    "span": 4
                  },
                  {
                    "position": 3,
                    "uid": "dnhftd",
                    "span": 4
                  }
                ]
              },
              {
               "position": 35,
                "uid": "7576ud",
                "type": "cards",
                "items": [
                  {
                    "position": 1,
                    "uid": "777ffh",
                    "span": 4
                  },
                  {
                    "position": 2,
                    "uid": "dh79t5",
                    "span": 4
                  },
                  {
                    "position": 3,
                    "uid": "d80ftd",
                    "span": 4
                  }
                ]
              },
              {
               "position": 36,
                "uid": "814u7d",
                "type": "cards",
                "items": [
                  {
                    "position": 1,
                    "uid": "82ffh",
                    "span": 4
                  },
                  {
                    "position": 2,
                    "uid": "dhrt837",
                    "span": 4
                  },
                  {
                    "position": 3,
                    "uid": "d84ftd",
                    "span": 4
                  }
                ]
              },
              {
               "position": 37,
                "uid": "7585ud",
                "type": "cards",
                "items": [
                  {
                    "position": 1,
                    "uid": "786ffh",
                    "span": 4
                  },
                  {
                    "position": 2,
                    "uid": "dhrt87",
                    "span": 4
                  },
                  {
                    "position": 3,
                    "uid": "dn88td",
                    "span": 4
                  }
                ]
              },
              {
               "position": 38,
                "uid": "7589ud",
                "type": "cards",
                "items": [
                  {
                    "position": 1,
                    "uid": "9074ffh",
                    "span": 4
                  },
                  {
                    "position": 2,
                    "uid": "dhrt917",
                    "span": 4
                  },
                  {
                    "position": 3,
                    "uid": "92hftd",
                    "span": 4
                  }
                ]
              },
              {
               "position": 39,
                "uid": "9347ud",
                "type": "cards",
                "items": [
                  {
                    "position": 1,
                    "uid": "944ffh",
                    "span": 4
                  },
                  {
                    "position": 2,
                    "uid": "95547",
                    "span": 4
                  },
                  {
                    "position": 3,
                    "uid": "dnhftd",
                    "span": 4
                  }
                ]
              },
              {
               "position": 40,
                "uid": "9647ud",
                "type": "cards",
                "items": [
                  {
                    "position": 1,
                    "uid": "9774ffh",
                    "span": 4
                  },
                  {
                    "position": 2,
                    "uid": "dh98547",
                    "span": 4
                  },
                  {
                    "position": 3,
                    "uid": "d99td",
                    "span": 4
                  }
                ]
              },
              {
               "position": 41,
                "uid": "100ud",
                "type": "cards",
                "items": [
                  {
                    "position": 1,
                    "uid": "101ffh",
                    "span": 4
                  },
                  {
                    "position": 2,
                    "uid": "dhrt102",
                    "span": 4
                  },
                  {
                    "position": 3,
                    "uid": "dnh103",
                    "span": 4
                  }
                ]
              },
              {
               "position": 42,
                "uid": "75104d",
                "type": "cards",
                "items": [
                  {
                    "position": 1,
                    "uid": "74105fh",
                    "span": 4
                  },
                  {
                    "position": 2,
                    "uid": "dh1067",
                    "span": 4
                  },
                  {
                    "position": 3,
                    "uid": "dnh107",
                    "span": 4
                  }
                ]
              },
              {
               "position": 43,
                "uid": "75108d",
                "type": "cards",
                "items": [
                  {
                    "position": 1,
                    "uid": "74109fh",
                    "span": 4
                  },
                  {
                    "position": 2,
                    "uid": "dhr1107",
                    "span": 4
                  },
                  {
                    "position": 3,
                    "uid": "dn111d",
                    "span": 4
                  }
                ]
              },
              {
               "position": 44,
                "uid": "754112d",
                "type": "cards",
                "items": [
                  {
                    "position": 1,
                    "uid": "7113fh",
                    "span": 4
                  },
                  {
                    "position": 2,
                    "uid": "d114t547",
                    "span": 4
                  },
                  {
                    "position": 3,
                    "uid": "d115td",
                    "span": 4
                  }
                ]
              },
              {
               "position": 45,
                "uid": "75116d",
                "type": "cards",
                "items": [
                  {
                    "position": 1,
                    "uid": "74117fh",
                    "span": 4
                  },
                  {
                    "position": 2,
                    "uid": "dh11847",
                    "span": 4
                  },
                  {
                    "position": 3,
                    "uid": "dn119d",
                    "span": 4
                  }
                ]
              },
              {
               "position": 46,
                "uid": "75120d",
                "type": "cards",
                "items": [
                  {
                    "position": 1,
                    "uid": "74121fh",
                    "span": 4
                  },
                  {
                    "position": 2,
                    "uid": "dh1227",
                    "span": 4
                  },
                  {
                    "position": 3,
                    "uid": "dn123",
                    "span": 4
                  }
                ]
              },
              {
               "position": 47,
                "uid": "75124ud",
                "type": "cards",
                "items": [
                  {
                    "position": 1,
                    "uid": "74125fh",
                    "span": 4
                  },
                  {
                    "position": 2,
                    "uid": "d136547",
                    "span": 4
                  },
                  {
                    "position": 3,
                    "uid": "d127dg",
                    "span": 4
                  }
                ]
              },
              {
               "position": 48,
                "uid": "7128ud",
                "type": "cards",
                "items": [
                  {
                    "position": 1,
                    "uid": "74129fh",
                    "span": 4
                  },
                  {
                    "position": 2,
                    "uid": "dh13147",
                    "span": 4
                  },
                  {
                    "position": 3,
                    "uid": "dn130d",
                    "span": 4
                  }
                ]
              },
              {
               "position": 49,
                "uid": "7132d",
                "type": "cards",
                "items": [
                  {
                    "position": 1,
                    "uid": "74133fh",
                    "span": 4
                  },
                  {
                    "position": 2,
                    "uid": "dhr134",
                    "span": 4
                  },
                  {
                    "position": 3,
                    "uid": "d135td",
                    "span": 4
                  }
                ]
              },
              {
               "position": 50,
                "uid": "7136ud",
                "type": "cards",
                "items": [
                  {
                    "position": 1,
                    "uid": "7137fh",
                    "span": 4
                  },
                  {
                    "position": 2,
                    "uid": "dh13647",
                    "span": 4
                  },
                  {
                    "position": 3,
                    "uid": "d139td",
                    "span": 4
                  }
                ]
              }
            ]
          }
        ]
    }
  }
}
